<svg width="8" height="5" viewBox="0 0 8 5" fill="none" xmlns="http://www.w3.org/2000/svg">
<path d="M3.78046 4.56924L0.0904666 0.86901C-0.0303609 0.747776 -0.0301578 0.551496 0.0910916 0.430465C0.212325 0.309528 0.408715 0.30984 0.529636 0.43109L4.00001 3.91108L7.47037 0.430965C7.59131 0.309731 7.78757 0.309419 7.90882 0.43034C7.9696 0.491012 7.99999 0.570496 7.99999 0.64998C7.99999 0.729261 7.9698 0.808432 7.90944 0.868995L4.21954 4.56924C4.16145 4.62764 4.08238 4.6604 4.00001 4.6604C3.91764 4.6604 3.83867 4.62754 3.78046 4.56924Z" fill="#B0B2C1"/>
</svg>
