<svg width="26" height="17" viewBox="0 0 26 17" fill="none" xmlns="http://www.w3.org/2000/svg">
<g clip-path="url(#clip0)">
<path d="M25.6931 5.43451L25.6822 5.42923L13.1781 0.0738599C13.1233 0.0474787 13.063 0.0369263 13.0027 0.0369263C12.9425 0.0369263 12.8822 0.0474787 12.8274 0.0738599L0.301357 5.43451C0.142453 5.5031 0.0438232 5.65083 0.0438232 5.81967C0.0438232 5.98851 0.147933 6.13624 0.301357 6.20483L5.31506 8.34698L5.60547 8.47361V13.8606C5.60547 14.9739 6.78903 15.6862 7.77533 16.0925C9.13971 16.6465 11.0466 16.9631 12.9972 16.9631C14.9534 16.9631 16.8548 16.6465 18.2192 16.0925C19.2109 15.6915 20.389 14.9792 20.389 13.8606V8.47361L20.6794 8.34698L24.389 6.75884L25.0849 6.46337V16.541C25.0849 16.7731 25.2822 16.9578 25.5178 16.9578C25.7589 16.9578 25.9507 16.7678 25.9507 16.541V5.81967C25.9616 5.6139 25.8192 5.48199 25.6931 5.43451ZM19.5233 13.8606C19.5233 14.9317 16.8438 16.1241 12.9972 16.1241C9.15067 16.1241 6.47122 14.9317 6.47122 13.8606V8.84822L7.16163 9.14369L12.8164 11.5655C12.8712 11.5919 12.9315 11.6024 12.9918 11.6024C13.052 11.6024 13.1123 11.5919 13.1671 11.5655L18.8219 9.14369L19.5178 8.84822V13.8606H19.5233ZM23.4411 6.25232L13.2 10.6369L12.9972 10.7213L12.7945 10.6369L2.55889 6.25232L1.54519 5.81967L2.55889 5.38702L12.8 1.00248L13.0027 0.918056L13.2055 1.00248L23.4466 5.38702L24.4603 5.81967L23.4411 6.25232Z" fill="#B63F5F"/>
<path d="M13.0027 0.0422098C13.063 0.0422098 13.1233 0.0527623 13.1781 0.0791434L25.6877 5.43451H25.6932H25.6986C25.8192 5.482 25.9616 5.6139 25.9616 5.81968V16.541C25.9616 16.7731 25.7644 16.9578 25.5288 16.9578C25.2877 16.9578 25.0959 16.7678 25.0959 16.541V6.46338L24.4 6.75885L20.6904 8.34699L20.4 8.47362V13.8606C20.4 14.9739 19.2164 15.6862 18.2301 16.0925C16.8658 16.6465 14.9644 16.9631 13.0082 16.9631C11.0575 16.9631 9.15069 16.6465 7.7863 16.0925C6.79452 15.6915 5.61644 14.9792 5.61644 13.8606V8.47362L5.32603 8.34699L0.30137 6.19957C0.142466 6.13097 0.0438356 5.98324 0.0438356 5.8144C0.0438356 5.65084 0.147945 5.49783 0.30137 5.42924L12.8274 0.0738672C12.8822 0.0527623 12.9425 0.0422098 13.0027 0.0422098ZM13.0027 10.7213L13.2055 10.6369L23.4466 6.25233L24.4603 5.81968L23.4466 5.38703L13.2 1.00248L12.9973 0.918063L12.7945 1.00248L2.5589 5.38703L1.54521 5.81968L2.5589 6.25233L12.8 10.6369L13.0027 10.7213ZM13.0027 11.5971C12.9425 11.5971 12.8822 11.5866 12.8274 11.5602L7.1726 9.13842L6.48219 8.84295V13.8554C6.48219 14.9264 9.16164 16.1189 13.0082 16.1189C16.8548 16.1189 19.5342 14.9264 19.5342 13.8554V8.84295L18.8384 9.13842L13.1836 11.5602C13.1233 11.5866 13.063 11.5971 13.0027 11.5971ZM13.0027 0C12.937 0 12.8712 0.0158287 12.811 0.0369336L0.284931 5.39758C0.109589 5.47145 0 5.64029 0 5.81968C0 5.99907 0.109589 6.16263 0.284931 6.2365L5.29863 8.38392L5.56712 8.5V13.8606C5.56712 14.995 6.76164 15.7179 7.76438 16.1241C9.13425 16.6782 11.0411 16.9947 13.0027 16.9947C14.9589 16.9947 16.8712 16.6782 18.2411 16.1241C19.2438 15.7179 20.4384 14.995 20.4384 13.8606V8.5L20.7068 8.38392L24.4164 6.79578L25.0521 6.52142V16.5357C25.0521 16.789 25.2658 16.9947 25.5288 16.9947C25.7918 16.9947 26.0055 16.789 26.0055 16.5357V5.81968C26.0055 5.5928 25.8466 5.45034 25.7151 5.39758H25.7096L13.1945 0.0422098C13.1342 0.0158287 13.0685 0 13.0027 0ZM1.64932 5.81968L2.58082 5.42396L12.8219 1.03942L13.0082 0.960273L13.189 1.03942L23.4301 5.42396L24.3616 5.81968L23.4301 6.21539L13.189 10.5999L13.0082 10.6791L12.8219 10.5999L2.57534 6.21539L1.64932 5.81968ZM13.0027 11.6394C13.0685 11.6394 13.1342 11.6235 13.1945 11.5971L18.8493 9.17536L19.4849 8.90099V13.8554C19.4849 14.3724 18.8164 14.9317 17.6932 15.3485C16.4438 15.8181 14.7781 16.0767 13.0027 16.0767C11.2274 16.0767 9.56164 15.8181 8.31233 15.3485C7.18904 14.9264 6.52055 14.3672 6.52055 13.8554V8.90099L7.15616 9.17536L12.811 11.5971C12.8712 11.6235 12.937 11.6394 13.0027 11.6394Z" fill="#B63F5F"/>
</g>
<defs>
<clipPath id="clip0">
<rect width="26" height="17" fill="white"/>
</clipPath>
</defs>
</svg>
